{
  "project_info": {
    "project_number": "520713095091",
    "firebase_url": "https://bhutan-king.firebaseio.com",
    "project_id": "bhutan-king",
    "storage_bucket": "bhutan-king.appspot.com"
  },
  "client": [
    {
      "client_info": {
        "mobilesdk_app_id": "1:520713095091:android:2f5ab3760541b29b0dadc6",
        "android_client_info": {
          "package_name": "com.result.bhutanking"
        }
      },
      "oauth_client": [
        {
          "client_id": "520713095091-ksnfuo80gu13pqo1p0j3q4tpi971sqv7.apps.googleusercontent.com",
          "client_type": 1,
          "android_info": {
            "package_name": "com.result.bhutanking",
            "certificate_hash": "84731ad99113c2f3ae6ef7e06693f1d6c8f84de3"
          }
        },
        {
          "client_id": "520713095091-6ve9n8v2fb6qto87m1brshdr677somr7.apps.googleusercontent.com",
          "client_type": 3
        }
      ],
      "api_key": [
        {
          "current_key": "AIzaSyCJ_JznE1bmZTGUOuqWo07JrGukhPMm0BE"
        }
      ],
      "services": {
        "appinvite_service": {
          "other_platform_oauth_client": [
            {
              "client_id": "520713095091-6ve9n8v2fb6qto87m1brshdr677somr7.apps.googleusercontent.com",
              "client_type": 3
            }
          ]
        }
      }
    }
  ],
  "configuration_version": "1"
}